{
  "project_info": {
    "project_number": "382490498802",
    "firebase_url": "https://test-app-cb4fc.firebaseio.com",
    "project_id": "test-app-cb4fc",
    "storage_bucket": "test-app-cb4fc.appspot.com"
  },
  "client": [
    {
      "client_info": {
        "mobilesdk_app_id": "1:382490498802:android:9a7012ae055653ff80e26b",
        "android_client_info": {
          "package_name": "com.example.myapplication"
        }
      },
      "oauth_client": [
        {
          "client_id": "382490498802-bqj9cbo2vsm6ng247mdb015k16b0rni8.apps.googleusercontent.com",
          "client_type": 3
        }
      ],
      "api_key": [
        {
          "current_key": "AIzaSyAhBAZae543u9twTl9ofwp_mhJDOrXfrUc"
        }
      ],
      "services": {
        "appinvite_service": {
          "other_platform_oauth_client": [
            {
              "client_id": "382490498802-bqj9cbo2vsm6ng247mdb015k16b0rni8.apps.googleusercontent.com",
              "client_type": 3
            }
          ]
        }
      }
    }
  ],
  "configuration_version": "1"
}